{
    "disclaimer": "https://openexchangerates.org/terms/",
    "license": "https://openexchangerates.org/license/",
    "start_date": "2017-01-01",
    "end_date": "2017-01-31",
    "base": "AUD",
    "rates": {
        "2017-01-01": {
            "IDR": 0.0778595876,
            "AUD": 0.785518,
            "SGD": 8.04136,
            "HKD": 0.785588,
        },
        "2017-01-02": {
            "IDR": 0.0778595876,
            "AUD": 0.785518,
            "SGD": 8.04136,
            "HKD": 0.785588,
        },
        "2017-01-03": {
            "IDR": 0.0778595876,
            "AUD": 0.785518,
            "SGD": 8.04136,
            "HKD": 0.785588,
        },
        "2017-01-04": {
            "IDR": 0.0778595876,
            "AUD": 0.785518,
            "SGD": 8.04136,
            "HKD": 0.785588,
        },
        /* ... */
    }
}